EpidemiaR Introductiory Materials - 5 Data manipulation with *dplyr* and *tidyr*
…
To select all the columns except certain ones, you can use a - in front of the column name.

# Select all but one column
select(case_data, -province)
# Removing multiple columns
select(case_data, -period, -province)

To choose specific rows based on some criteria, use filter(). Again, the first argument will be the dataframe, then the following argument will be the condition that we want use to subset the data.

filter(case_data, province == "Eastern")

# A tibble: 2,294 × 5
# Rowwise: 
   period     province district   data_type count
   <date>     <chr>    <chr>      <chr>     <dbl>
 1 2018-01-01 Eastern  Chadiza    Clinical     89
 2 2018-01-01 Eastern  Chadiza    Confirmed  3926
 3 2018-01-01 Eastern  Chadiza    Tested     8261
 4 2018-01-01 Eastern  Chasefu    Clinical    357
 5 2018-01-01 Eastern  Chasefu    Confirmed  2599
 6 2018-01-01 Eastern  Chasefu    Tested     9021
 7 2018-01-01 Eastern  Chipangali Confirmed  6330
 8 2018-01-01 Eastern  Chipangali Tested    21612
 9 2018-01-01 Eastern  Chipata    Clinical    417
10 2018-01-01 Eastern  Chipata    Confirmed  4079
# ℹ 2,284 more rows

Notice here that just like in Chapter 1 use have to use a == sign for setting a condition. You read this as saying, “choose the rows in case_data where province is equal to”Eastern”. Also notice that the number of rows in the object has gone down from 18172 to 2294.

We can filter on multiple conditions at once using multiple arguments, using a , to state separate conditions.

filter(case_data, province == "Eastern", data_type == "Clinical")

# A tibble: 379 × 5
# Rowwise: 
   period     province district   data_type count
   <date>     <chr>    <chr>      <chr>     <dbl>
 1 2018-01-01 Eastern  Chadiza    Clinical     89
 2 2018-01-01 Eastern  Chasefu    Clinical    357
 3 2018-01-01 Eastern  Chipata    Clinical    417
 4 2018-01-01 Eastern  Kasenengwa Clinical    331
 5 2018-01-01 Eastern  Katete     Clinical     28
 6 2018-01-01 Eastern  Lumezi     Clinical     19
 7 2018-01-01 Eastern  Lundazi    Clinical     38
 8 2018-01-01 Eastern  Lusangazi  Clinical     58
 9 2018-01-01 Eastern  Petauke    Clinical     20
10 2018-01-01 Eastern  Sinda      Clinical      1
# ℹ 369 more rows
…
# Province is Eastern OR data type is Clinical 
filter(case_data, province == "Eastern" | data_type == "Clinical")

# Province is Central OR Eastern, AND count is over 1,000
filter(case_data, province == "Central" | province == "Eastern", count > 1000)

Question 3: Why did we not use & in the third example?

Another useful operator is the MATCH operator (%in%), which will return TRUE if a value matches any value in a list of possible options.

# Keep rows where data type could be Clinical, Confirmed, or Tested
filter(case_data, data_type %in% c("Clinical", "Confirmed", "Tested"))

# A tibble: 13,062 × 5
# Rowwise: 
   period     province district     data_type count
   <date>     <chr>    <chr>        <chr>     <dbl>
 1 2018-01-01 Central  Chibombo     Clinical     26
 2 2018-01-01 Central  Chibombo     Confirmed  1897
 3 2018-01-01 Central  Chibombo     Tested     8215
 4 2018-01-01 Central  Chisamba     Confirmed  2192
 5 2018-01-01 Central  Chisamba     Tested     7772
 6 2018-01-01 Central  Chitambo     Clinical     33
 7 2018-01-01 Central  Chitambo     Confirmed  6011
 8 2018-01-01 Central  Chitambo     Tested     3993
 9 2018-01-01 Central  Itezhi-tezhi Confirmed   890
10 2018-01-01 Central  Itezhi-tezhi Tested     5007
# ℹ 13,052 more rows

# Keep rows from a group of selected districts
study_districts <- c("Chadiza", "Chipata", "Katete", "Lumezi")
filter(case_data, district %in% study_districts)

# A tibble: 649 × 5
# Rowwise: 
   period     province district data_type count
   <date>     <chr>    <chr>    <chr>     <dbl>
 1 2018-01-01 Eastern  Chadiza  Clinical     89
 2 2018-01-01 Eastern  Chadiza  Confirmed  3926
 3 2018-01-01 Eastern  Chadiza  Tested     8261
 4 2018-01-01 Eastern  Chipata  Clinical    417
 5 2018-01-01 Eastern  Chipata  Confirmed  4079
 6 2018-01-01 Eastern  Chipata  Tested    20550
 7 2018-01-01 Eastern  Katete   Clinical     28
 8 2018-01-01 Eastern  Katete   Confirmed  3124
 9 2018-01-01 Eastern  Katete   Tested    18207
10 2018-01-01 Eastern  Lumezi   Clinical     19
# ℹ 639 more rows

Question 4: Can you show all of the “Tested” data in Western Province?

Question 5: Can you show all “Confirmed” that have a count over 2000?

Finally, the ! operator in R used for NOT or opposite conditions. The most common use cases are for using NOT EQUAL (!=) or does NOT MATCH operations.

# Keep all rows where province is NOT Lusaka
filter(case_data, province != "Lusaka")

# A tibble: 16,993 × 5
# Rowwise: 
   period     province district     data_type             count
   <date>     <chr>    <chr>        <chr>                 <dbl>
 1 2018-01-01 Central  Chibombo     Clinical                 26
 2 2018-01-01 Central  Chibombo     Confirmed              1897
 3 2018-01-01 Central  Chibombo     Tested                 8215
 4 2018-01-01 Central  Chisamba     Confirmed              2192
 5 2018-01-01 Central  Chisamba     Tested                 7772
 6 2018-01-01 Central  Chitambo     Clinical                 33
 7 2018-01-01 Central  Chitambo     Confirmed              6011
 8 2018-01-01 Central  Chitambo     Tested                 3993
 9 2018-01-01 Central  Itezhi-tezhi Confirmed               890
10 2018-01-01 Central  Itezhi-tezhi Confirmed_Passive_CHW   897
# ℹ 16,983 more rows

# Keep rows where data type does NOT match Clinical, Confirmed, or Tested
filter(case_data, !data_type %in% c("Clinical", "Confirmed", "Tested"))

# A tibble: 5,110 × 5
# Rowwise: 
   period     province district     data_type             count
   <date>     <chr>    <chr>        <chr>                 <dbl>
 1 2018-01-01 Central  Itezhi-tezhi Confirmed_Passive_CHW   897
 2 2018-01-01 Central  Itezhi-tezhi Tested_Passive_CHW     2708
 3 2018-01-01 Central  Mumbwa       Confirmed_Passive_CHW   861
 4 2018-01-01 Central  Mumbwa       Tested_Passive_CHW     3173
 5 2018-01-01 Central  Shibuyunji   Confirmed_Passive_CHW     6
 6 2018-01-01 Central  Shibuyunji   Tested_Passive_CHW       94
 7 2018-01-01 Eastern  Petauke      Confirmed_Passive_CHW     0
 8 2018-01-01 Eastern  Petauke      Tested_Passive_CHW        0
 9 2018-01-01 Lusaka   Chirundu     Confirmed_Passive_CHW    55
10 2018-01-01 Lusaka   Chirundu     Tested_Passive_CHW      406
# ℹ 5,100 more rows
…
month(workshop_days)

[1] 11 11 11 11 11

month(workshop_days, label = TRUE)

[1] Nov Nov Nov Nov Nov
12 Levels: Jan < Feb < Mar < Apr < May < Jun < Jul < Aug < Sep < ... < Dec

These functions can be used in filter().

filter(case_data, year(period) == 2020)

# A tibble: 5,232 × 5
# Rowwise: 
   period     province district     data_type             count
   <date>     <chr>    <chr>        <chr>                 <dbl>
 1 2020-01-01 Central  Chibombo     Clinical                 51
 2 2020-01-01 Central  Chibombo     Confirmed              9473
 3 2020-01-01 Central  Chibombo     Tested                17192
 4 2020-01-01 Central  Chisamba     Confirmed              2885
 5 2020-01-01 Central  Chisamba     Tested                 5499
 6 2020-01-01 Central  Chitambo     Clinical               1895
 7 2020-01-01 Central  Chitambo     Confirmed              9929
 8 2020-01-01 Central  Chitambo     Tested                12642
 9 2020-01-01 Central  Itezhi-tezhi Confirmed              1406
10 2020-01-01 Central  Itezhi-tezhi Confirmed_Passive_CHW  1184
# ℹ 5,222 more rows

filter(case_data, between(period, ymd("2019-01-01"), ymd("2019-06-30")))

# A tibble: 2,394 × 5
# Rowwise: 
   period     province district     data_type count
   <date>     <chr>    <chr>        <chr>     <dbl>
 1 2019-01-01 Central  Chibombo     Clinical    347
 2 2019-01-01 Central  Chibombo     Confirmed  3706
 3 2019-01-01 Central  Chibombo     Tested     8116
 4 2019-01-01 Central  Chisamba     Confirmed  2304
 5 2019-01-01 Central  Chisamba     Tested     6975
 6 2019-01-01 Central  Chitambo     Clinical      2
 7 2019-01-01 Central  Chitambo     Confirmed  7328
 8 2019-01-01 Central  Chitambo     Tested     8320
 9 2019-01-01 Central  Itezhi-tezhi Clinical      6
10 2019-01-01 Central  Itezhi-tezhi Confirmed   833
# ℹ 2,384 more rows
Question 8: What were the reported total tests (HF and CHW) in Chadiza district each month during 2018?

Question 9: How many tests (HF and CHW) were conducted in April 2020 in Nchelenge district?

Question 10 (HARD): What were the monthly confirmed cases in Chadiza during the peak transmission season (December to May) each year?

6.3.3 Creating new columns with mutate()

Another common task is creating new columns based on values in existing columns. The *dplyr* function for this action is mutate().

Here is an example using the *lubridate* function from the section above to make a column for the year of observation:

mutate(case_data, year = year(period))

# A tibble: 18,172 × 6
# Rowwise: 
   period     province district     data_type             count  year
   <date>     <chr>    <chr>        <chr>                 <dbl> <dbl>
 1 2018-01-01 Central  Chibombo     Clinical                 26  2018
 2 2018-01-01 Central  Chibombo     Confirmed              1897  2018
 3 2018-01-01 Central  Chibombo     Tested                 8215  2018
 4 2018-01-01 Central  Chisamba     Confirmed              2192  2018
 5 2018-01-01 Central  Chisamba     Tested                 7772  2018
 6 2018-01-01 Central  Chitambo     Clinical                 33  2018
 7 2018-01-01 Central  Chitambo     Confirmed              6011  2018
 8 2018-01-01 Central  Chitambo     Tested                 3993  2018
 9 2018-01-01 Central  Itezhi-tezhi Confirmed               890  2018
10 2018-01-01 Central  Itezhi-tezhi Confirmed_Passive_CHW   897  2018
# ℹ 18,162 more rows

First, state the name for the new column, then = followed by the function for the new value. You can create multiple new columns in a single mutate() call, using a , to separate each column.

mutate(case_data,
    year = year(period), 
    month_num = month(period),
    month_name = month(period, label = TRUE))

# A tibble: 18,172 × 8
# Rowwise: 
   period     province district     data_type   count  year month_num month_name
   <date>     <chr>    <chr>        <chr>       <dbl> <dbl>     <dbl> <ord>     
 1 2018-01-01 Central  Chibombo     Clinical       26  2018         1 Jan       
 2 2018-01-01 Central  Chibombo     Confirmed    1897  2018         1 Jan       
 3 2018-01-01 Central  Chibombo     Tested       8215  2018         1 Jan       
 4 2018-01-01 Central  Chisamba     Confirmed    2192  2018         1 Jan       
 5 2018-01-01 Central  Chisamba     Tested       7772  2018         1 Jan       
 6 2018-01-01 Central  Chitambo     Clinical       33  2018         1 Jan       
 7 2018-01-01 Central  Chitambo     Confirmed    6011  2018         1 Jan       
 8 2018-01-01 Central  Chitambo     Tested       3993  2018         1 Jan       
 9 2018-01-01 Central  Itezhi-tezhi Confirmed     890  2018         1 Jan       
10 2018-01-01 Central  Itezhi-tezhi Confirmed_…   897  2018         1 Jan       
# ℹ 18,162 more rows
…
Question 11: Can you add a new variable (column) to the dataset that gives the quarter of the year?

Question 12: Can you add a new variable (column) to the dataset that gives just the last 2 digits of the year? i.e. 2021 becomes 21

6.4 Use Pipes to combine steps

What if you want to select and filter at the same time? There are three ways to do this: use intermediate steps, nested functions, or pipes.

For intermediate steps, we need to create a new intermediate object for the output of our first function, which will then be used as an input for the second function:

case_data_lusaka_confirmed <- filter(case_data, province == "Lusaka", data_type == "Confirmed")
case_data_lusaka_district_months <- select(case_data_lusaka_confirmed, district, period, count)
case_data_lusaka_district_months

# A tibble: 301 × 3
# Rowwise: 
   district period     count
   <chr>    <date>     <dbl>
 1 Chilanga 2018-01-01   151
 2 Chirundu 2018-01-01   198
 3 Chongwe  2018-01-01   426
 4 Kafue    2018-01-01   290
 5 Luangwa  2018-01-01   776
 6 Lusaka   2018-01-01  1248
 7 Rufunsa  2018-01-01  2907
 8 Chilanga 2018-02-01   165
 9 Chirundu 2018-02-01    89
10 Chongwe  2018-02-01   467
# ℹ 291 more rows
…
case_data_lusaka_district_months <- select(
  filter(case_data, province == "Lusaka", data_type == "Confirmed"), 
  district, period, count)

This doesn’t clutter the workshop or take up unnecessary memory, but it is difficult to read especially since R will interpret these steps from the inside out (first filter, then select).

The last option is to use pipes, a new addition to R. A pipe lets you take the output from one function and input it directly into the next function. By default, this will automatically go into the first argument of the new function. This is useful for stringing together multiple data cleaning steps while maintaining readability and keeping our environment clear. The *tidyverse* package includes a pipe function which looks like %>%. In RStudio, the shortcut for this pipe is Ctrl + Shift + M if you have a PC or Cmd + Shift + M if you have a Mac. You can adjust this shortcut under Tools >> Modify Keyboard Shortcuts…

Here’s an example of using a pipe for combine the filter and select from the previous example.

case_data %>% 
  filter(province == "Lusaka", data_type == "Confirmed") %>% 
  select(district, period, count)

# A tibble: 301 × 3
# Rowwise: 
   district period     count
   <chr>    <date>     <dbl>
 1 Chilanga 2018-01-01   151
 2 Chirundu 2018-01-01   198
 3 Chongwe  2018-01-01   426
 4 Kafue    2018-01-01   290
 5 Luangwa  2018-01-01   776
 6 Lusaka   2018-01-01  1248
 7 Rufunsa  2018-01-01  2907
 8 Chilanga 2018-02-01   165
 9 Chirundu 2018-02-01    89
10 Chongwe  2018-02-01   467
# ℹ 291 more rows
…
You can also group by more than one column, and output multiple columns within a single summarize() call.

case_data %>% 
  filter(data_type == "Tested") %>% 
  group_by(province, district, year(period)) %>% 
  summarise(mean_tested_per_month = mean(count, na.rm = TRUE), 
            total_tested_per_month = sum(count, na.rm = TRUE))

# A tibble: 466 × 5
# Groups:   province, district [117]
   province district `year(period)` mean_tested_per_month total_tested_per_month
   <chr>    <chr>             <dbl>                 <dbl>                  <dbl>
 1 Central  Chibombo           2018                 8442.                 101301
 2 Central  Chibombo           2019                 7309.                  87711
 3 Central  Chibombo           2020                12910.                 154926
 4 Central  Chibombo           2021                14252.                  99763
 5 Central  Chisamba           2018                 6959.                  83511
 6 Central  Chisamba           2019                 5204                   62448
 7 Central  Chisamba           2020                 5815.                  69776
 8 Central  Chisamba           2021                 5825.                  40773
 9 Central  Chitambo           2018                 4071.                  48855
10 Central  Chitambo           2019                 5620.                  67442
# ℹ 456 more rows

case_data %>% 
  filter(data_type == "Tested") %>% 
  group_by(province, district, year(period)) %>% 
  summarise(mean_tested_per_month = mean(count, na.rm = TRUE), 
            total_tested_per_month = sum(count, na.rm = TRUE))

# A tibble: 466 × 5
# Groups:   province, district [117]
   province district `year(period)` mean_tested_per_month total_tested_per_month
   <chr>    <chr>             <dbl>                 <dbl>                  <dbl>
 1 Central  Chibombo           2018                 8442.                 101301
 2 Central  Chibombo           2019                 7309.                  87711
 3 Central  Chibombo           2020                12910.                 154926
 4 Central  Chibombo           2021                14252.                  99763
 5 Central  Chisamba           2018                 6959.                  83511
 6 Central  Chisamba           2019                 5204                   62448
 7 Central  Chisamba           2020                 5815.                  69776
 8 Central  Chisamba           2021                 5825.                  40773
 9 Central  Chitambo           2018                 4071.                  48855
10 Central  Chitambo           2019                 5620.                  67442
# ℹ 456 more rows

Sometimes it is useful to rearrange the result of our summarized dataset, in which case we can use the arrange() function.

case_data %>% 
  filter(data_type == "Tested", 
         year(period) == 2019) %>% 
  group_by(district, period) %>% 
  summarise(total_tested_per_month = sum(count)) %>% 
  arrange(total_tested_per_month)

# A tibble: 1,396 × 3
# Groups:   district [117]
   district   period     total_tested_per_month
   <chr>      <date>                      <dbl>
 1 Mwandi     2019-10-01                     45
 2 Mwandi     2019-11-01                    144
 3 Mwandi     2019-01-01                    267
 4 Mwandi     2019-09-01                    287
 5 Mwandi     2019-12-01                    292
 6 Shang'ombo 2019-11-01                    312
 7 Pemba      2019-08-01                    319
 8 Shang'ombo 2019-07-01                    348
 9 Shang'ombo 2019-10-01                    369
10 Mwandi     2019-06-01                    389
# ℹ 1,386 more rows

By default arranging with be in ascending order, you can use desc() to make the output descending.

case_data %>% 
  filter(data_type == "Tested", 
         year(period) == 2019) %>% 
  group_by(district, period) %>% 
  summarise(total_tested_per_month = sum(count)) %>% 
  arrange(desc(total_tested_per_month))

# A tibble: 1,396 × 3
# Groups:   district [117]
   district      period     total_tested_per_month
   <chr>         <date>                      <dbl>
 1 Kapiri-Mposhi 2019-03-01                  53173
 2 Kapiri-Mposhi 2019-04-01                  45125
 3 Petauke       2019-04-01                  44856
 4 Kitwe         2019-01-01                  44378
 5 Kapiri-Mposhi 2019-05-01                  40387
 6 Ndola         2019-04-01                  39858
 7 Kitwe         2019-02-01                  39630
 8 Chipangali    2019-04-01                  39166
 9 Solwezi       2019-12-01                  38709
10 Kitwe         2019-03-01                  37622
# ℹ 1,386 more rows
…
